\relax 
\providecommand\hyper@newdestlabel[2]{}
\providecommand*\new@tpo@label[2]{}
\providecommand\HyperFirstAtBeginDocument{\AtBeginDocument}
\HyperFirstAtBeginDocument{\ifx\hyper@anchor\@undefined
\global\let\oldcontentsline\contentsline
\gdef\contentsline#1#2#3#4{\oldcontentsline{#1}{#2}{#3}}
\global\let\oldnewlabel\newlabel
\gdef\newlabel#1#2{\newlabelxx{#1}#2}
\gdef\newlabelxx#1#2#3#4#5#6{\oldnewlabel{#1}{{#2}{#3}}}
\AtEndDocument{\ifx\hyper@anchor\@undefined
\let\contentsline\oldcontentsline
\let\newlabel\oldnewlabel
\fi}
\fi}
\global\let\hyper@last\relax 
\gdef\HyperFirstAtBeginDocument#1{#1}
\providecommand\HyField@AuxAddToFields[1]{}
\providecommand\HyField@AuxAddToCoFields[2]{}
\babel@aux{english}{}
\babel@aux{english}{}
\pgfsyspdfmark {pgfid1}{7997536}{50110553}
\citation{Kartmann2018}
\citation{Grotz2019}
\citation{Wolf2015}
\citation{Held2016}
\@writefile{brf}{\backcite{Kartmann2018}{{1}{(document)}{Doc-Start}}}
\@writefile{brf}{\backcite{Grotz2019}{{1}{(document)}{Doc-Start}}}
\@writefile{brf}{\backcite{Wolf2015}{{1}{(document)}{Doc-Start}}}
\@writefile{brf}{\backcite{Held2016}{{1}{(document)}{Doc-Start}}}
\citation{Silberman2012}
\citation{Kartmann2018,Mojtahedzadeh2015}
\citation{Teichman2011}
\citation{Grotz2019}
\citation{Kartmann2018}
\@writefile{toc}{\contentsline {chapter}{\numberline {1}Motivation}{2}{chapter.1}}
\@writefile{lof}{\addvspace {10\p@ }}
\@writefile{lot}{\addvspace {10\p@ }}
\@writefile{lol}{\addvspace {10\p@ }}
\@writefile{brf}{\backcite{Silberman2012}{{2}{1}{chapter.1}}}
\@writefile{tdo}{\contentsline {todo}{\color@fb@x {}{black}{}{orange}{\leavevmode {\color  {orange}o}}\ maybe cite another scene understanding approach}{2}{section*.2}}
\pgfsyspdfmark {pgfid2}{18769049}{43955076}
\pgfsyspdfmark {pgfid3}{2929758}{43947208}
\pgfsyspdfmark {pgfid4}{5185952}{43733893}
\@writefile{brf}{\backcite{Kartmann2018}{{2}{1}{section*.2}}}
\@writefile{brf}{\backcite{Mojtahedzadeh2015}{{2}{1}{section*.2}}}
\@writefile{brf}{\backcite{Teichman2011}{{2}{1}{section*.2}}}
\@writefile{brf}{\backcite{Grotz2019}{{2}{1}{section*.2}}}
\@writefile{brf}{\backcite{Kartmann2018}{{2}{1}{section*.2}}}
\citation{Wolf2015}
\citation{Held2016}
\citation{Kartmann2018}
\citation{Kartmann2018}
\citation{Grotz2019}
\@writefile{toc}{\contentsline {chapter}{\numberline {2}Problem description}{3}{chapter.2}}
\@writefile{lof}{\addvspace {10\p@ }}
\@writefile{lot}{\addvspace {10\p@ }}
\@writefile{lol}{\addvspace {10\p@ }}
\@writefile{brf}{\backcite{Wolf2015}{{3}{2}{chapter.2}}}
\@writefile{brf}{\backcite{Held2016}{{3}{2}{chapter.2}}}
\@writefile{brf}{\backcite{Kartmann2018}{{3}{2}{chapter.2}}}
\@writefile{brf}{\backcite{Kartmann2018}{{3}{2}{chapter.2}}}
\@writefile{brf}{\backcite{Grotz2019}{{3}{2}{chapter.2}}}
\@writefile{toc}{\contentsline {section}{\numberline {2.1}Scope}{3}{section.2.1}}
\citation{Kartmann2018}
\citation{Grotz2019}
\citation{Wolf2015}
\citation{Held2016}
\@writefile{toc}{\contentsline {chapter}{\numberline {3}Related work}{4}{chapter.3}}
\@writefile{lof}{\addvspace {10\p@ }}
\@writefile{lot}{\addvspace {10\p@ }}
\@writefile{lol}{\addvspace {10\p@ }}
\@writefile{brf}{\backcite{Kartmann2018}{{4}{3.1}{section.3.1}}}
\@writefile{toc}{\contentsline {section}{\numberline {3.1}Extraction of Physically Plausible Support Relations to Predict and Validate Manipulation Action Effects (\cite  {Kartmann2018})}{4}{section.3.1}}
\@writefile{brf}{\backcite{Grotz2019}{{4}{3.2}{section.3.2}}}
\@writefile{toc}{\contentsline {section}{\numberline {3.2}Active Vision for Extraction of Physically Plausible Support Relations (\cite  {Grotz2019})}{4}{section.3.2}}
\@writefile{brf}{\backcite{Wolf2015}{{4}{3.3}{section.3.3}}}
\@writefile{toc}{\contentsline {section}{\numberline {3.3}Fast Semantic Segmentation of 3D Point Clouds using a Dense CRF with Learned Parameters (\cite  {Wolf2015})}{4}{section.3.3}}
\@writefile{brf}{\backcite{Held2016}{{4}{3.4}{section.3.4}}}
\@writefile{toc}{\contentsline {section}{\numberline {3.4}A probabilistic framework for real-time 3D segmentation using spatial, temporal, and semantic cues (\cite  {Held2016})}{4}{section.3.4}}
\citation{Held2016}
\@writefile{brf}{\backcite{Held2016}{{5}{3.4}{section.3.4}}}
\bibstyle{abbrvnat}
\bibdata{citation}
\@writefile{toc}{\contentsline {chapter}{\numberline {4}Timeline}{6}{chapter.4}}
\@writefile{lof}{\addvspace {10\p@ }}
\@writefile{lot}{\addvspace {10\p@ }}
\@writefile{lol}{\addvspace {10\p@ }}
\gtt@chartextrasize{0}{70.39508pt}
\bibcite{Wolf2015}{{1}{2015}{{Wolf et~al.}}{{Wolf, Prankl, and Vincze}}}
\bibcite{Held2016}{{2}{2016}{{Held et~al.}}{{Held, Guillory, Rebsamen, Thrun, and Savarese}}}
\bibcite{Grotz2019}{{3}{2019}{{Grotz et~al.}}{{Grotz, Sippel, and Asfour}}}
\bibcite{Kartmann2018}{{4}{2018}{{Kartmann et~al.}}{{Kartmann, Paus, Grotz, and Asfour}}}
\bibcite{Teichman2011}{{5}{2011}{{Teichman et~al.}}{{Teichman, Levinson, and Thrun}}}
\bibcite{Silberman2012}{{6}{2012}{{Silberman et~al.}}{{Silberman, Hoiem, Kohli, and Fergus}}}
\bibcite{Mojtahedzadeh2015}{{7}{2015}{{Mojtahedzadeh et~al.}}{{Mojtahedzadeh, Bouguerra, Schaffernicht, and Lilienthal}}}
\newlabel{LastPage}{{}{7}{}{page.7}{}}
\xdef\lastpage@lastpage{7}
\xdef\lastpage@lastpageHy{7}
\global\@namedef{scr@dte@chapter@lastmaxnumwidth}{8.79506pt}
\global\@namedef{scr@dte@section@lastmaxnumwidth}{16.49994pt}
